Visualizar datos - Tutorial avanzado de programación en R
…
> mpg
# A tibble: 234 x 11
   manufacturer model      displ  year   cyl trans      drv     cty   hwy fl    class  
   <chr>        <chr>      <dbl> <int> <int> <chr>      <chr> <int> <int> <chr> <chr>  
 1 audi         a4           1.8  1999     4 auto(l5)   f        18    29 p     compact
 2 audi         a4           1.8  1999     4 manual(m5) f        21    29 p     compact
 3 audi         a4           2    2008     4 manual(m6) f        20    31 p     compact
 4 audi         a4           2    2008     4 auto(av)   f        21    30 p     compact
 5 audi         a4           2.8  1999     6 auto(l5)   f        16    26 p     compact
 6 audi         a4           2.8  1999     6 manual(m5) f        18    26 p     compact
 7 audi         a4           3.1  2008     6 auto(av)   f        18    27 p     compact
 8 audi         a4 quattro   1.8  1999     4 manual(m5) 4        18    26 p     compact
 9 audi         a4 quattro   1.8  1999     4 auto(l5)   4        16    25 p     compact
10 audi         a4 quattro   2    2008     4 manual(m6) 4        20    28 p     compact
# ... with 224 more rows
…
12
13
14
15
16
17
18
19
20
21
22
23
24

# A tibble: 234 x 11
  manufacturer model              displ  year   cyl trans      drv     cty   hwy fl    class  
  <chr>        <chr>              <dbl> <int> <int> <chr>      <chr> <int> <int> <chr> <chr>  
1 audi         a4                   1.8  1999     4 auto(l5)   f        18    29 p     compact
2 audi         a4                   1.8  1999     4 manual(m5) f        21    29 p     compact
3 audi         a4                   2    2008     4 manual(m6) f        20    31 p     compact
4 audi         a4                   2    2008     4 auto(av)   f        21    30 p     compact
5 audi         a4                   2.8  1999     6 auto(l5)   f        16    26 p     compact
6 audi         a4                   2.8  1999     6 manual(m5) f        18    26 p     compact
7 audi         a4                   3.1  2008     6 auto(av)   f        18    27 p     compact
8 audi         a4 quattro           1.8  1999     4 manual(m5) 4        18    26 p     compact
9 audi         a4 quattro           1.8  1999     4 auto(l5)   4        16    25 p     compact
10 audi         a4 quattro           2    2008     4 manual(m6) 4        20    28 p     compact
11 audi         a4 quattro           2    2008     4 auto(s6)   4        19    27 p     compact
12 audi         a4 quattro           2.8  1999     6 auto(l5)   4        15    25 p     compact
13 audi         a4 quattro           2.8  1999     6 manual(m5) 4        17    25 p     compact
14 audi         a4 quattro           3.1  2008     6 auto(s6)   4        17    25 p     compact
15 audi         a4 quattro           3.1  2008     6 manual(m6) 4        15    25 p     compact
16 audi         a6 quattro           2.8  1999     6 auto(l5)   4        15    24 p     midsize
17 audi         a6 quattro           3.1  2008     6 auto(s6)   4        17    25 p     midsize
18 audi         a6 quattro           4.2  2008     8 auto(s6)   4        16    23 p     midsize
19 chevrolet    c1500 suburban 2wd   5.3  2008     8 auto(l4)   r        14    20 r     suv    
20 chevrolet    c1500 suburban 2wd   5.3  2008     8 auto(l4)   r        11    15 e     suv    
# ... with 214 more rows
…
