Ordenar datos - Tutorial avanzado de programación en R
…
 2
 3
 4
 5
 6
 7
 8
 9
10
11
12
13
14

# A tibble: 1,098 x 10
   V1       V2       V3        V4           V5        V6          V7       V8        V9         V10     
 * <chr>    <chr>    <chr>     <chr>        <chr>     <chr>       <chr>    <chr>     <chr>      <chr>   
 1 years_t~ Tumor_p~ patholog~ histologica~ number_o~ gender_and~ radiati~ ethnicity Median_ov~ overall~
 2 55       0.7886   NA        infiltratin~ 4         female/whi~ no       nothispa~ 1          4047    
 3 50       0.6974   2         infiltratin~ 1         female/bla~ yes      nothispa~ 1          4005    
 4 62       0.7666   2         infiltratin~ 1         female/bla~ no       nothispa~ 0          1474    
 5 52       0.6869   1         infiltratin~ 0         female/bla~ no       nothispa~ 0          1448    
 6 50       0.649    3         infiltratin~ 4         female/whi~ no       nothispa~ 0          348     
 7 42       0.6501   2         infiltratin~ 0         female/whi~ yes      hispanic~ 0          1477    
 8 63       0.5553   4         infiltratin~ 0         female/whi~ no       hispanic~ 0          1471    
 9 52       0.8368   2         other,speci~ NA        female/bla~ yes      nothispa~ 0          303     
10 70       0.9328   1         other,speci~ 0         female/whi~ NA       nothispa~ 0          259     
# ... with 1,088 more rows
…
 3
 4
 5
 6
 7
 8
 9
10
11
12
13
14
15

# A tibble: 1,097 x 10
   years_to_birth Tumor_purity pathologic_stage histological_type   number_of_lymph_~ gender_and_race   
   <chr>          <chr>        <chr>            <chr>               <chr>             <chr>             
 1 55             0.7886       NA               infiltratinglobula~ 4                 female/white      
 2 50             0.6974       2                infiltratingductal~ 1                 female/blackorafr~
 3 62             0.7666       2                infiltratingductal~ 1                 female/blackorafr~
 4 52             0.6869       1                infiltratingductal~ 0                 female/blackorafr~
 5 50             0.649        3                infiltratinglobula~ 4                 female/white      
 6 42             0.6501       2                infiltratinglobula~ 0                 female/white      
 7 63             0.5553       4                infiltratinglobula~ 0                 female/white      
 8 52             0.8368       2                other,specify       NA                female/blackorafr~
 9 70             0.9328       1                other,specify       0                 female/white      
10 59             0.6906       2                infiltratingductal~ 0                 female/white      
# ... with 1,087 more rows, and 4 more variables: radiation_therapy <chr>, ethnicity <chr>,
#   Median_overall_survival <chr>, overall_survival <chr>
…
 3
 4
 5
 6
 7
 8
 9
10
11
12
13
14
15

# A tibble: 1,097 x 9
   ejemplo1  pathologic_stage histological_type    number_of_lymph_~ gender_and_race    radiation_thera~
   <chr>     <chr>            <chr>                <chr>             <chr>              <chr>           
 1 55 - 0.7~ NA               infiltratinglobular~ 4                 female/white       no              
 2 50 - 0.6~ 2                infiltratingductalc~ 1                 female/blackorafr~ yes             
 3 62 - 0.7~ 2                infiltratingductalc~ 1                 female/blackorafr~ no              
 4 52 - 0.6~ 1                infiltratingductalc~ 0                 female/blackorafr~ no              
 5 50 - 0.6~ 3                infiltratinglobular~ 4                 female/white       no              
 6 42 - 0.6~ 2                infiltratinglobular~ 0                 female/white       yes             
 7 63 - 0.5~ 4                infiltratinglobular~ 0                 female/white       no              
 8 52 - 0.8~ 2                other,specify        NA                female/blackorafr~ yes             
 9 70 - 0.9~ 1                other,specify        0                 female/white       NA              
10 59 - 0.6~ 2                infiltratingductalc~ 0                 female/white       NA              
# ... with 1,087 more rows, and 3 more variables: ethnicity <chr>, Median_overall_survival <chr>,
#   overall_survival <chr>
…
 3
 4
 5
 6
 7
 8
 9
10
11
12
13
14
15

# A tibble: 1,097 x 11
   ejemplo2    years_to_birth Tumor_purity pathologic_stage histological_type        number_of_lymph_no~
   <chr>       <chr>          <chr>        <chr>            <chr>                    <chr>              
 1 55 - 0.7886 55             0.7886       NA               infiltratinglobularcarc~ 4                  
 2 50 - 0.6974 50             0.6974       2                infiltratingductalcarci~ 1                  
 3 62 - 0.7666 62             0.7666       2                infiltratingductalcarci~ 1                  
 4 52 - 0.6869 52             0.6869       1                infiltratingductalcarci~ 0                  
 5 50 - 0.649  50             0.649        3                infiltratinglobularcarc~ 4                  
 6 42 - 0.6501 42             0.6501       2                infiltratinglobularcarc~ 0                  
 7 63 - 0.5553 63             0.5553       4                infiltratinglobularcarc~ 0                  
 8 52 - 0.8368 52             0.8368       2                other,specify            NA                 
 9 70 - 0.9328 70             0.9328       1                other,specify            0                  
10 59 - 0.6906 59             0.6906       2                infiltratingductalcarci~ 0                  
# ... with 1,087 more rows, and 5 more variables: gender_and_race <chr>, radiation_therapy <chr>,
#   ethnicity <chr>, Median_overall_survival <chr>, overall_survival <chr>
…
 3
 4
 5
 6
 7
 8
 9
10
11
12
13
14
15

# A tibble: 1,097 x 11
   years_to_birth Tumor_purity treatment_urgency pathologic_stage histological_type    number_of_lymph_~
   <chr>          <chr>        <chr>             <chr>            <chr>                <chr>            
 1 55             0.7886       NA & no           NA               infiltratinglobular~ 4                
 2 50             0.6974       2 & yes           2                infiltratingductalc~ 1                
 3 62             0.7666       2 & no            2                infiltratingductalc~ 1                
 4 52             0.6869       1 & no            1                infiltratingductalc~ 0                
 5 50             0.649        3 & no            3                infiltratinglobular~ 4                
 6 42             0.6501       2 & yes           2                infiltratinglobular~ 0                
 7 63             0.5553       4 & no            4                infiltratinglobular~ 0                
 8 52             0.8368       2 & yes           2                other,specify        NA               
 9 70             0.9328       1 & NA            1                other,specify        0                
 10 59             0.6906       2 & NA            2                infiltratingductalc~ 0                
 # ... with 1,087 more rows, and 5 more variables: gender_and_race <chr>, radiation_therapy <chr>,
 #   ethnicity <chr>, Median_overall_survival <chr>, overall_survival <chr>
…
 3
 4
 5
 6
 7
 8
 9
10
11
12
13
14
15

# A tibble: 1,097 x 11
   years_to_birth Tumor_purity pathologic_stage histological_type    number_of_lymph_~ gender race      
   <chr>          <chr>        <chr>            <chr>                <chr>             <chr>  <chr>     
 1 55             0.7886       NA               infiltratinglobular~ 4                 female white     
 2 50             0.6974       2                infiltratingductalc~ 1                 female blackoraf~
 3 62             0.7666       2                infiltratingductalc~ 1                 female blackoraf~
 4 52             0.6869       1                infiltratingductalc~ 0                 female blackoraf~
 5 50             0.649        3                infiltratinglobular~ 4                 female white     
 6 42             0.6501       2                infiltratinglobular~ 0                 female white     
 7 63             0.5553       4                infiltratinglobular~ 0                 female white     
 8 52             0.8368       2                other,specify        NA                female blackoraf~
 9 70             0.9328       1                other,specify        0                 female white     
10 59             0.6906       2                infiltratingductalc~ 0                 female white     
# ... with 1,087 more rows, and 4 more variables: radiation_therapy <chr>, ethnicity <chr>,
#   Median_overall_survival <chr>, overall_survival <chr>
…
 3
 4
 5
 6
 7
 8
 9
10
11
12
13
14
15

# A tibble: 1,097 x 10
   histological_type   years_to_birth Tumor_purity pathologic_stage number_of_lymph_~ gender_and_race   
   <chr>               <chr>          <chr>        <chr>            <chr>             <chr>             
 1 infiltratinglobula~ 55             0.7886       NA               4                 female/white      
 2 infiltratingductal~ 50             0.6974       2                1                 female/blackorafr~
 3 infiltratingductal~ 62             0.7666       2                1                 female/blackorafr~
 4 infiltratingductal~ 52             0.6869       1                0                 female/blackorafr~
 5 infiltratinglobula~ 50             0.649        3                4                 female/white      
 6 infiltratinglobula~ 42             0.6501       2                0                 female/white      
 7 infiltratinglobula~ 63             0.5553       4                0                 female/white      
 8 other,specify       52             0.8368       2                NA                female/blackorafr~
 9 other,specify       70             0.9328       1                0                 female/white      
10 infiltratingductal~ 59             0.6906       2                0                 female/white      
# ... with 1,087 more rows, and 4 more variables: radiation_therapy <chr>, ethnicity <chr>,
#   Median_overall_survival <chr>, overall_survival <chr>
…
 3
 4
 5
 6
 7
 8
 9
10
11
12
13
14
15

# A tibble: 1,097 x 10
   years_to_birth Tumor_purity ethnicity      pathologic_stage histological_type      number_of_lymph_n~
   <chr>          <chr>        <chr>          <chr>            <chr>                  <chr>             
1 55             0.7886       nothispanicor~ NA               infiltratinglobularca~ 4                 
2 50             0.6974       nothispanicor~ 2                infiltratingductalcar~ 1                 
3 62             0.7666       nothispanicor~ 2                infiltratingductalcar~ 1                 
4 52             0.6869       nothispanicor~ 1                infiltratingductalcar~ 0                 
5 50             0.649        nothispanicor~ 3                infiltratinglobularca~ 4                 
6 42             0.6501       hispanicorlat~ 2                infiltratinglobularca~ 0                 
7 63             0.5553       hispanicorlat~ 4                infiltratinglobularca~ 0                 
8 52             0.8368       nothispanicor~ 2                other,specify          NA                
9 70             0.9328       nothispanicor~ 1                other,specify          0                 
10 59             0.6906       nothispanicor~ 2                infiltratingductalcar~ 0                 
# ... with 1,087 more rows, and 4 more variables: gender_and_race <chr>, radiation_therapy <chr>,
#   Median_overall_survival <chr>, overall_survival <chr>
…
 3
 4
 5
 6
 7
 8
 9
10
11
12
13
14
15

# A tibble: 1,097 x 10
   years_to_birth Tumor_purity pathologic_stage histological_type   number_of_lymph_~ gender_and_race   
            <int> <chr>        <chr>            <chr>                           <int> <chr>             
 1             55 0.7886       NA               infiltratinglobula~                 4 female/white      
 2             50 0.6974       2                infiltratingductal~                 1 female/blackorafr~
 3             62 0.7666       2                infiltratingductal~                 1 female/blackorafr~
 4             52 0.6869       1                infiltratingductal~                 0 female/blackorafr~
 5             50 0.649        3                infiltratinglobula~                 4 female/white      
 6             42 0.6501       2                infiltratinglobula~                 0 female/white      
 7             63 0.5553       4                infiltratinglobula~                 0 female/white      
 8             52 0.8368       2                other,specify                      NA female/blackorafr~
 9             70 0.9328       1                other,specify                       0 female/white      
10             59 0.6906       2                infiltratingductal~                 0 female/white      
# ... with 1,087 more rows, and 4 more variables: radiation_therapy <chr>, ethnicity <chr>,
#   Median_overall_survival <int>, overall_survival <int>
…
 3
 4
 5
 6
 7
 8
 9
10
11
12
13
14
15

# A tibble: 1,097 x 10
   years_to_birth Tumor_purity pathologic_stage histological_type   number_of_lymph_~ gender_and_race   
            <int>        <dbl> <chr>            <chr>                           <int> <chr>             
 1             55        0.789 NA               infiltratinglobula~                 4 female/white      
 2             50        0.697 2                infiltratingductal~                 1 female/blackorafr~
 3             62        0.767 2                infiltratingductal~                 1 female/blackorafr~
 4             52        0.687 1                infiltratingductal~                 0 female/blackorafr~
 5             50        0.649 3                infiltratinglobula~                 4 female/white      
 6             42        0.650 2                infiltratinglobula~                 0 female/white      
 7             63        0.555 4                infiltratinglobula~                 0 female/white      
 8             52        0.837 2                other,specify                      NA female/blackorafr~
 9             70        0.933 1                other,specify                       0 female/white      
10             59        0.691 2                infiltratingductal~                 0 female/white      
# ... with 1,087 more rows, and 4 more variables: radiation_therapy <chr>, ethnicity <chr>,
#   Median_overall_survival <int>, overall_survival <int>
…
